{
  "$schema": "https://schema.tauri.app/config/2.0.0-rc",
  "productName": "testapp",
  "version": "0.1.0",
  "identifier": "dev.suda.tauri-yew-demo",
  "build": {
    "frontendDist": "../dist",
    "devUrl": "http://127.0.0.1:5000",
    "beforeDevCommand": "trunk serve",
    "beforeBuildCommand": "trunk build"
  },
  "app": {
    "withGlobalTauri": true,
    "windows": [
      {
        "title": "Test App",
        "width": 800,
        "height": 600,
        "resizable": true,
        "fullscreen": false
      }
    ],
    "security": {
      "csp": null
    }
  },
  "bundle": {
    "active": false,
    "targets": "all",
    "icon": [
      "icons/32x32.png",
      "icons/128x128.png",
      "icons/128x128@2x.png",
      "icons/icon.icns",
      "icons/icon.ico"
    ]
  }
}
